Date,Open,High,Low,Close,Adj Close,Volume
2018-12-31,1278.0,1281.300048828125,1277.5999755859375,1278.300048828125,1278.300048828125,19
2019-01-02,1286.0,1286.0,1277.5999755859375,1281.0,1281.0,149
2019-01-03,1286.800048828125,1292.0,1286.699951171875,1291.800048828125,1291.800048828125,10
2019-01-04,1294.199951171875,1294.199951171875,1275.300048828125,1282.699951171875,1282.699951171875,34
2019-01-07,1286.800048828125,1286.800048828125,1286.5999755859375,1286.800048828125,1286.800048828125,2
2019-01-08,1280.5,1283.199951171875,1278.199951171875,1283.199951171875,1283.199951171875,54
2019-01-09,1279.4000244140625,1289.300048828125,1279.199951171875,1289.300048828125,1289.300048828125,102
2019-01-10,1284.699951171875,1284.699951171875,1284.699951171875,1284.699951171875,1284.699951171875,0
2019-01-11,1291.199951171875,1291.199951171875,1286.300048828125,1287.0999755859375,1287.0999755859375,11
2019-01-14,1292.4000244140625,1293.9000244140625,1289.0999755859375,1289.0999755859375,1289.0999755859375,7
2019-01-15,1290.0999755859375,1292.699951171875,1286.199951171875,1286.199951171875,1286.199951171875,3
2019-01-16,1291.5999755859375,1291.5999755859375,1291.5999755859375,1291.5999755859375,1291.5999755859375,2
2019-01-17,1291.5999755859375,1292.699951171875,1288.5,1291.0,1291.0,10
2019-01-18,1281.300048828125,1281.300048828125,1281.300048828125,1281.300048828125,1281.300048828125,3
2019-01-22,1282.5,1283.300048828125,1282.5,1282.5,1282.5,7
2019-01-23,1281.699951171875,1283.9000244140625,1278.699951171875,1283.0999755859375,1283.0999755859375,14
2019-01-24,1279.0999755859375,1279.0999755859375,1278.5,1279.0999755859375,1279.0999755859375,1
2019-01-25,1297.4000244140625,1297.4000244140625,1297.4000244140625,1297.4000244140625,1297.4000244140625,0
2019-01-28,1300.800048828125,1307.0999755859375,1298.4000244140625,1302.4000244140625,1302.4000244140625,54
2019-01-29,1308.199951171875,1308.199951171875,1308.199951171875,1308.199951171875,1308.199951171875,213607
2019-01-30,1310.4000244140625,1323.4000244140625,1308.0999755859375,1309.9000244140625,1309.9000244140625,54958
2019-01-31,1320.0,1325.4000244140625,1316.699951171875,1319.699951171875,1319.699951171875,1970
2019-02-01,1320.300048828125,1320.699951171875,1315.4000244140625,1316.9000244140625,1316.9000244140625,878
2019-02-04,1318.0999755859375,1318.0999755859375,1308.300048828125,1314.300048828125,1314.300048828125,675
2019-02-05,1311.0999755859375,1315.0999755859375,1311.0,1314.199951171875,1314.199951171875,362
2019-02-06,1312.5,1313.5,1305.0,1309.5,1309.5,358
2019-02-07,1302.9000244140625,1310.4000244140625,1302.199951171875,1309.4000244140625,1309.4000244140625,203
2019-02-08,1309.5,1314.0,1307.800048828125,1313.699951171875,1313.699951171875,122
2019-02-11,1313.4000244140625,1313.4000244140625,1304.699951171875,1307.0,1307.0,119
2019-02-12,1310.0,1312.0,1307.5999755859375,1309.199951171875,1309.199951171875,109
2019-02-13,1311.5999755859375,1316.0,1308.0999755859375,1310.800048828125,1310.800048828125,143
2019-02-14,1305.0,1311.800048828125,1301.5999755859375,1309.800048828125,1309.800048828125,858
2019-02-15,1313.5999755859375,1318.800048828125,1313.5999755859375,1318.0999755859375,1318.0999755859375,190
2019-02-19,1320.9000244140625,1340.0999755859375,1320.5,1340.0999755859375,1340.0999755859375,390
2019-02-20,1342.199951171875,1344.0,1338.0,1343.300048828125,1343.300048828125,581
2019-02-21,1331.300048828125,1334.9000244140625,1320.9000244140625,1323.5,1323.5,414
2019-02-22,1324.199951171875,1331.300048828125,1321.0,1329.199951171875,1329.199951171875,718
2019-02-25,1329.199951171875,1331.5999755859375,1325.5999755859375,1325.9000244140625,1325.9000244140625,185
2019-02-26,1323.300048828125,1325.5,1323.300048828125,1325.0999755859375,1325.0999755859375,939
2019-02-27,1327.699951171875,1327.9000244140625,1316.5,1317.699951171875,1317.699951171875,604
2019-02-28,1321.0999755859375,1323.699951171875,1311.5,1312.800048828125,1312.800048828125,141
2019-03-01,1312.199951171875,1312.199951171875,1288.9000244140625,1296.4000244140625,1296.4000244140625,110
2019-03-04,1285.5,1287.0,1281.9000244140625,1284.800048828125,1284.800048828125,28
2019-03-05,1287.0,1287.0,1282.0,1282.0,1282.0,114
2019-03-06,1287.0999755859375,1287.0999755859375,1282.5999755859375,1284.9000244140625,1284.9000244140625,14
2019-03-07,1281.0,1284.5999755859375,1281.0,1283.800048828125,1283.800048828125,11
2019-03-08,1292.0999755859375,1297.4000244140625,1291.5999755859375,1297.0,1297.0,10
2019-03-11,1291.0,1291.0,1288.800048828125,1288.800048828125,1288.800048828125,9
2019-03-12,1294.699951171875,1296.300048828125,1294.699951171875,1296.300048828125,1296.300048828125,1
2019-03-13,1307.5,1307.5,1307.5,1307.5,1307.5,0
2019-03-14,1293.4000244140625,1293.4000244140625,1293.4000244140625,1293.4000244140625,1293.4000244140625,1
2019-03-15,1300.9000244140625,1304.699951171875,1300.5,1301.800048828125,1301.800048828125,26
2019-03-18,1297.300048828125,1302.199951171875,1297.300048828125,1300.300048828125,1300.300048828125,8
2019-03-19,1306.9000244140625,1306.9000244140625,1304.800048828125,1305.0,1305.0,20
2019-03-20,1300.699951171875,1300.699951171875,1300.5,1300.5,1300.5,2
2019-03-21,1306.0999755859375,1306.0999755859375,1306.0999755859375,1306.0999755859375,1306.0999755859375,0
2019-03-22,1311.5999755859375,1311.5999755859375,1311.5999755859375,1311.5999755859375,1311.5999755859375,0
2019-03-25,1320.699951171875,1322.9000244140625,1320.699951171875,1321.9000244140625,1321.9000244140625,19
2019-03-26,1315.5999755859375,1315.5999755859375,1314.300048828125,1314.300048828125,1314.300048828125,1
2019-03-27,1309.9000244140625,1309.9000244140625,1309.9000244140625,1309.9000244140625,1309.9000244140625,206263
2019-03-28,1308.4000244140625,1311.0999755859375,1287.699951171875,1289.800048828125,1289.800048828125,87798
2019-03-29,1289.5999755859375,1298.5,1286.0999755859375,1293.0,1293.0,1265
2019-04-01,1291.800048828125,1295.9000244140625,1285.699951171875,1288.4000244140625,1288.4000244140625,675
2019-04-02,1286.300048828125,1290.9000244140625,1284.5,1290.0,1290.0,525
2019-04-03,1291.4000244140625,1293.0999755859375,1287.5,1289.9000244140625,1289.9000244140625,172
2019-04-04,1290.5999755859375,1292.5999755859375,1279.5,1289.0,1289.0,269
2019-04-05,1292.0,1292.0,1283.5999755859375,1290.4000244140625,1290.4000244140625,181
2019-04-08,1292.199951171875,1302.0999755859375,1291.800048828125,1297.0999755859375,1297.0999755859375,63
2019-04-09,1298.5,1304.9000244140625,1298.5,1303.5,1303.5,30
2019-04-10,1304.0,1309.0999755859375,1301.5,1309.0999755859375,1309.0999755859375,66
2019-04-11,1307.0,1307.0999755859375,1288.5999755859375,1288.5999755859375,1288.5999755859375,420
2019-04-12,1293.4000244140625,1293.4000244140625,1289.199951171875,1290.5999755859375,1290.5999755859375,607
2019-04-15,1284.800048828125,1287.300048828125,1282.300048828125,1286.800048828125,1286.800048828125,523
2019-04-16,1285.199951171875,1285.199951171875,1272.199951171875,1272.5999755859375,1272.5999755859375,643
2019-04-17,1273.5,1273.5,1271.5999755859375,1272.199951171875,1272.199951171875,308
2019-04-18,1270.800048828125,1273.5999755859375,1270.0999755859375,1271.9000244140625,1271.9000244140625,27
2019-04-22,1273.5,1273.5,1273.5,1273.5,1273.5,147
2019-04-23,1266.4000244140625,1269.800048828125,1266.0,1269.300048828125,1269.300048828125,206
2019-04-24,1268.4000244140625,1275.5,1267.800048828125,1275.5,1275.5,518
2019-04-25,1280.5999755859375,1280.800048828125,1275.800048828125,1275.800048828125,1275.800048828125,95
2019-04-26,1284.9000244140625,1284.9000244140625,1284.9000244140625,1284.9000244140625,1284.9000244140625,804
2019-04-29,1284.800048828125,1284.9000244140625,1277.0999755859375,1278.5999755859375,1278.5999755859375,568
2019-04-30,1281.699951171875,1283.300048828125,1280.800048828125,1282.800048828125,1282.800048828125,114
2019-05-01,1278.699951171875,1283.300048828125,1278.699951171875,1281.4000244140625,1281.4000244140625,70
2019-05-02,1269.199951171875,1270.800048828125,1266.5999755859375,1269.699951171875,1269.699951171875,63
2019-05-03,1270.0999755859375,1279.199951171875,1270.0999755859375,1279.199951171875,1279.199951171875,15
2019-05-06,1282.199951171875,1282.199951171875,1280.300048828125,1281.699951171875,1281.699951171875,12
2019-05-07,1280.5,1283.5,1280.5,1283.5,1283.5,8
2019-05-08,1279.4000244140625,1279.4000244140625,1279.4000244140625,1279.4000244140625,1279.4000244140625,5
2019-05-09,1278.9000244140625,1285.0,1278.800048828125,1283.5,1283.5,38
2019-05-10,1285.4000244140625,1286.5,1283.300048828125,1285.699951171875,1285.699951171875,6
2019-05-13,1286.699951171875,1300.0999755859375,1281.800048828125,1300.0999755859375,1300.0999755859375,56
2019-05-14,1297.800048828125,1297.800048828125,1294.699951171875,1294.699951171875,1294.699951171875,6
2019-05-15,1296.9000244140625,1296.9000244140625,1296.0,1296.300048828125,1296.300048828125,55
2019-05-16,1285.199951171875,1285.4000244140625,1285.0,1285.0,1285.0,3
2019-05-17,1280.0,1280.0,1274.5,1274.5,1274.5,1
2019-05-20,1276.0999755859375,1276.0999755859375,1276.0999755859375,1276.0999755859375,1276.0999755859375,20
2019-05-21,1272.0,1272.0,1272.0,1272.0,1272.0,0
2019-05-22,1273.5999755859375,1273.5999755859375,1273.5999755859375,1273.5999755859375,1273.5999755859375,0
2019-05-23,1284.800048828125,1284.800048828125,1284.800048828125,1284.800048828125,1284.800048828125,0
2019-05-24,1283.0,1283.0,1283.0,1283.0,1283.0,9
2019-05-28,1276.5,1276.5,1276.5,1276.5,1276.5,0
2019-05-29,1280.5999755859375,1280.5999755859375,1280.5999755859375,1280.5999755859375,1280.5999755859375,189694
2019-05-30,1279.4000244140625,1288.300048828125,1273.9000244140625,1287.0999755859375,1287.0999755859375,55573
2019-05-31,1287.699951171875,1306.4000244140625,1287.5,1305.800048828125,1305.800048828125,2814
2019-06-03,1307.0,1327.800048828125,1307.0,1322.699951171875,1322.699951171875,812
2019-06-04,1324.300048828125,1328.5999755859375,1320.800048828125,1323.4000244140625,1323.4000244140625,302
2019-06-05,1328.9000244140625,1343.300048828125,1326.300048828125,1328.300048828125,1328.300048828125,622
2019-06-06,1330.800048828125,1338.699951171875,1326.199951171875,1337.5999755859375,1337.5999755859375,161
2019-06-07,1333.0999755859375,1347.699951171875,1329.800048828125,1341.199951171875,1341.199951171875,240
2019-06-10,1335.800048828125,1336.5,1324.0999755859375,1324.699951171875,1324.699951171875,268
2019-06-11,1328.4000244140625,1328.4000244140625,1319.0999755859375,1326.4000244140625,1326.4000244140625,201
2019-06-12,1326.9000244140625,1334.5,1326.9000244140625,1331.9000244140625,1331.9000244140625,139
2019-06-13,1331.5999755859375,1341.0999755859375,1331.5999755859375,1339.199951171875,1339.199951171875,157
2019-06-14,1345.4000244140625,1355.4000244140625,1339.300048828125,1340.0999755859375,1340.0999755859375,914
2019-06-17,1339.0,1340.300048828125,1335.0,1338.699951171875,1338.699951171875,76
2019-06-18,1349.300048828125,1349.300048828125,1341.5999755859375,1346.5999755859375,1346.5999755859375,29
2019-06-19,1344.0,1344.5999755859375,1344.0,1344.5999755859375,1344.5999755859375,129
2019-06-20,1381.5,1392.9000244140625,1379.5,1392.9000244140625,1392.9000244140625,76
2019-06-21,1406.0,1406.0,1390.300048828125,1396.199951171875,1396.199951171875,35
2019-06-24,1406.0,1420.5999755859375,1402.0999755859375,1414.300048828125,1414.300048828125,125
2019-06-25,1418.0999755859375,1433.300048828125,1414.9000244140625,1414.9000244140625,1414.9000244140625,105
2019-06-26,1407.199951171875,1413.300048828125,1405.800048828125,1411.5999755859375,1411.5999755859375,1333
2019-06-27,1407.0,1410.800048828125,1399.800048828125,1408.4000244140625,1408.4000244140625,437
2019-06-28,1408.300048828125,1422.0,1408.300048828125,1409.699951171875,1409.699951171875,356
2019-07-01,1386.5999755859375,1395.800048828125,1382.800048828125,1385.5999755859375,1385.5999755859375,214
2019-07-02,1391.0999755859375,1418.4000244140625,1390.800048828125,1404.5999755859375,1404.5999755859375,38
2019-07-03,1431.0,1434.0,1413.0999755859375,1417.699951171875,1417.699951171875,46
2019-07-05,1418.300048828125,1418.300048828125,1390.199951171875,1396.699951171875,1396.699951171875,20
2019-07-08,1395.9000244140625,1397.0,1393.5999755859375,1397.0,1397.0,14
2019-07-09,1394.5,1397.5,1386.199951171875,1397.5,1397.5,53
2019-07-10,1409.9000244140625,1410.0999755859375,1409.9000244140625,1410.0999755859375,1410.0999755859375,50
2019-07-11,1424.0,1424.0,1404.300048828125,1404.300048828125,1404.300048828125,6
2019-07-12,1405.5999755859375,1410.0999755859375,1405.5999755859375,1409.9000244140625,1409.9000244140625,8
2019-07-15,1414.4000244140625,1415.0,1411.4000244140625,1411.4000244140625,1411.4000244140625,25
2019-07-16,1413.5999755859375,1413.699951171875,1405.0,1409.199951171875,1409.199951171875,13
2019-07-17,1404.5999755859375,1421.300048828125,1404.5999755859375,1421.300048828125,1421.300048828125,6
2019-07-18,1422.300048828125,1444.199951171875,1419.5,1426.0999755859375,1426.0999755859375,66
2019-07-19,1440.5,1442.0,1425.0999755859375,1425.0999755859375,1425.0999755859375,22
2019-07-22,1425.300048828125,1425.300048828125,1424.0,1425.300048828125,1425.300048828125,1
2019-07-23,1418.5999755859375,1421.300048828125,1416.300048828125,1420.0999755859375,1420.0999755859375,5
2019-07-24,1422.800048828125,1422.800048828125,1422.800048828125,1422.800048828125,1422.800048828125,20
2019-07-25,1413.9000244140625,1413.9000244140625,1413.9000244140625,1413.9000244140625,1413.9000244140625,4
2019-07-26,1422.800048828125,1423.0,1418.5,1418.5,1418.5,5
2019-07-29,1419.5999755859375,1419.5999755859375,1419.5999755859375,1419.5999755859375,1419.5999755859375,224267
2019-07-30,1426.300048828125,1433.9000244140625,1422.0999755859375,1429.699951171875,1429.699951171875,73874
2019-07-31,1431.300048828125,1435.800048828125,1411.199951171875,1426.0999755859375,1426.0999755859375,3294
2019-08-01,1411.300048828125,1445.199951171875,1400.9000244140625,1420.9000244140625,1420.9000244140625,2431
2019-08-02,1448.0,1448.0,1432.300048828125,1445.5999755859375,1445.5999755859375,1873
2019-08-05,1440.4000244140625,1469.699951171875,1440.4000244140625,1464.5999755859375,1464.5999755859375,1008
2019-08-06,1469.699951171875,1475.0,1457.699951171875,1472.4000244140625,1472.4000244140625,460
2019-08-07,1473.5,1509.9000244140625,1473.199951171875,1507.300048828125,1507.300048828125,824
2019-08-08,1498.4000244140625,1508.5,1492.0,1497.699951171875,1497.699951171875,367
2019-08-09,1506.199951171875,1507.5,1495.5999755859375,1496.5999755859375,1496.5999755859375,74
2019-08-12,1496.0,1514.9000244140625,1488.0999755859375,1505.300048828125,1505.300048828125,257
2019-08-13,1510.4000244140625,1531.4000244140625,1483.699951171875,1502.199951171875,1502.199951171875,672
2019-08-14,1500.0,1520.5,1497.0,1515.9000244140625,1515.9000244140625,328
2019-08-15,1519.800048828125,1522.699951171875,1510.5999755859375,1519.5999755859375,1519.5999755859375,87
2019-08-16,1524.5999755859375,1524.5999755859375,1504.699951171875,1512.5,1512.5,1815
2019-08-19,1507.199951171875,1507.5999755859375,1492.9000244140625,1500.4000244140625,1500.4000244140625,205
2019-08-20,1497.5,1506.0999755859375,1497.5,1504.5999755859375,1504.5999755859375,486
2019-08-21,1504.9000244140625,1505.0,1498.800048828125,1504.5999755859375,1504.5999755859375,350
2019-08-22,1495.0999755859375,1497.300048828125,1493.800048828125,1497.300048828125,1497.300048828125,686
2019-08-23,1493.5,1527.5999755859375,1493.5,1526.5999755859375,1526.5999755859375,983
2019-08-26,1543.199951171875,1543.300048828125,1524.300048828125,1526.300048828125,1526.300048828125,334
2019-08-27,1530.5,1542.0999755859375,1528.5,1541.0,1541.0,166
2019-08-28,1538.0999755859375,1538.0999755859375,1537.800048828125,1537.800048828125,1537.800048828125,2756
2019-08-29,1537.5,1549.300048828125,1519.5999755859375,1526.5,1526.5,704
2019-08-30,1524.5999755859375,1530.4000244140625,1516.699951171875,1519.0999755859375,1519.0999755859375,276
2019-09-03,1522.9000244140625,1547.300048828125,1521.0,1545.9000244140625,1545.9000244140625,139
2019-09-04,1549.0,1553.199951171875,1534.800048828125,1550.300048828125,1550.300048828125,46
2019-09-05,1551.0,1551.0999755859375,1511.0999755859375,1515.4000244140625,1515.4000244140625,125
2019-09-06,1517.300048828125,1526.0,1504.5,1506.199951171875,1506.199951171875,54
2019-09-09,1509.0,1513.0,1498.0,1502.199951171875,1502.199951171875,69
2019-09-10,1498.5,1498.5,1486.9000244140625,1490.300048828125,1490.300048828125,23
2019-09-11,1491.699951171875,1496.5999755859375,1490.199951171875,1494.4000244140625,1494.4000244140625,8
2019-09-12,1499.5,1515.4000244140625,1498.699951171875,1498.699951171875,1498.699951171875,27
2019-09-13,1490.9000244140625,1490.9000244140625,1486.9000244140625,1490.9000244140625,1490.9000244140625,1
2019-09-16,1506.5999755859375,1506.800048828125,1496.9000244140625,1503.0999755859375,1503.0999755859375,21
2019-09-17,1497.9000244140625,1505.0999755859375,1497.9000244140625,1505.0999755859375,1505.0999755859375,3
2019-09-18,1508.9000244140625,1509.4000244140625,1489.300048828125,1507.5,1507.5,8
2019-09-19,1496.0999755859375,1502.4000244140625,1496.0999755859375,1498.4000244140625,1498.4000244140625,10
2019-09-20,1503.0,1507.300048828125,1503.0,1507.300048828125,1507.300048828125,2
2019-09-23,1515.5,1523.699951171875,1515.5,1523.699951171875,1523.699951171875,5
2019-09-24,1515.0999755859375,1533.0,1515.0999755859375,1532.0999755859375,1532.0999755859375,25
2019-09-25,1527.5999755859375,1527.9000244140625,1504.5999755859375,1504.5999755859375,1504.5999755859375,25
2019-09-26,1507.5,1507.5,1507.5,1507.5,1507.5,8178
2019-09-27,1504.199951171875,1506.0999755859375,1485.5999755859375,1499.0999755859375,1499.0999755859375,7827
2019-09-30,1495.9000244140625,1495.9000244140625,1463.5,1465.699951171875,1465.699951171875,1078
2019-10-01,1468.699951171875,1485.5,1458.300048828125,1482.0,1482.0,219
2019-10-02,1476.5999755859375,1503.699951171875,1474.0999755859375,1501.0,1501.0,205
2019-10-03,1497.4000244140625,1518.199951171875,1496.5999755859375,1507.0999755859375,1507.0999755859375,1213
2019-10-04,1505.5999755859375,1508.699951171875,1497.0999755859375,1506.199951171875,1506.199951171875,233
2019-10-07,1504.800048828125,1505.800048828125,1489.0999755859375,1497.699951171875,1497.699951171875,121
2019-10-08,1489.4000244140625,1506.300048828125,1489.300048828125,1497.199951171875,1497.199951171875,46
2019-10-09,1507.699951171875,1507.699951171875,1498.4000244140625,1506.0999755859375,1506.0999755859375,120
2019-10-10,1511.199951171875,1511.199951171875,1490.5999755859375,1494.800048828125,1494.800048828125,78
2019-10-11,1491.9000244140625,1494.9000244140625,1476.9000244140625,1482.699951171875,1482.699951171875,57
2019-10-14,1484.4000244140625,1493.5,1481.300048828125,1491.699951171875,1491.699951171875,400
2019-10-15,1488.9000244140625,1495.4000244140625,1476.5999755859375,1477.5999755859375,1477.5999755859375,367
2019-10-16,1482.0,1488.0,1480.0,1488.0,1488.0,383
2019-10-17,1486.199951171875,1493.199951171875,1485.800048828125,1492.300048828125,1492.300048828125,271
2019-10-18,1487.300048828125,1489.0999755859375,1486.5999755859375,1488.199951171875,1488.199951171875,82
2019-10-21,1489.9000244140625,1489.9000244140625,1481.5,1482.4000244140625,1482.4000244140625,72
2019-10-22,1483.4000244140625,1483.5,1481.699951171875,1481.699951171875,1481.699951171875,99
2019-10-23,1486.4000244140625,1490.300048828125,1486.4000244140625,1489.9000244140625,1489.9000244140625,67
2019-10-24,1490.5,1501.199951171875,1485.9000244140625,1498.9000244140625,1498.9000244140625,115
2019-10-25,1501.4000244140625,1514.300048828125,1499.0,1499.5,1499.5,93
2019-10-28,1504.0999755859375,1504.0999755859375,1490.0,1490.0,1490.0,37
2019-10-29,1485.9000244140625,1487.0,1485.9000244140625,1487.0,1487.0,425
2019-10-30,1487.199951171875,1495.4000244140625,1481.0,1493.199951171875,1493.199951171875,320
2019-10-31,1496.0999755859375,1513.0999755859375,1496.0999755859375,1511.4000244140625,1511.4000244140625,210
2019-11-01,1511.0,1511.5999755859375,1503.0,1508.0,1508.0,235
2019-11-04,1511.5999755859375,1511.5999755859375,1508.0,1508.0,1508.0,101
2019-11-05,1507.0999755859375,1507.0999755859375,1480.800048828125,1480.800048828125,1480.800048828125,31
2019-11-06,1483.199951171875,1491.0,1483.199951171875,1490.199951171875,1490.199951171875,567
2019-11-07,1489.0999755859375,1489.0999755859375,1464.199951171875,1464.199951171875,1464.199951171875,581
2019-11-08,1469.0999755859375,1469.0999755859375,1461.300048828125,1461.300048828125,1461.300048828125,21
2019-11-11,1461.0,1461.0,1449.300048828125,1455.5,1455.5,22
2019-11-12,1454.9000244140625,1454.9000244140625,1447.0999755859375,1452.0999755859375,1452.0999755859375,6
2019-11-13,1456.800048828125,1463.300048828125,1456.800048828125,1461.699951171875,1461.699951171875,56
2019-11-14,1463.800048828125,1471.800048828125,1463.699951171875,1471.800048828125,1471.800048828125,83
2019-11-15,1469.0999755859375,1469.0999755859375,1467.300048828125,1467.300048828125,1467.300048828125,13
2019-11-18,1472.0,1472.0,1469.699951171875,1470.9000244140625,1470.9000244140625,141
2019-11-19,1467.699951171875,1474.300048828125,1467.699951171875,1473.300048828125,1473.300048828125,18
2019-11-20,1472.5999755859375,1474.5,1467.300048828125,1473.300048828125,1473.300048828125,31
2019-11-21,1463.0999755859375,1463.0999755859375,1463.0999755859375,1463.0999755859375,1463.0999755859375,16
2019-11-22,1468.5999755859375,1468.5999755859375,1463.0999755859375,1463.0999755859375,1463.0999755859375,19
2019-11-25,1457.0999755859375,1457.0999755859375,1455.5,1456.5999755859375,1456.5999755859375,14
2019-11-26,1459.800048828125,1459.800048828125,1459.800048828125,1459.800048828125,1459.800048828125,346362
2019-11-27,1461.0999755859375,1461.9000244140625,1452.0,1453.4000244140625,1453.4000244140625,88364
2019-11-29,1453.5999755859375,1465.5999755859375,1452.0999755859375,1465.5999755859375,1465.5999755859375,7020
2019-12-02,1462.800048828125,1464.4000244140625,1453.300048828125,1462.300048828125,1462.300048828125,2172
2019-12-03,1461.5999755859375,1480.4000244140625,1459.5,1478.199951171875,1478.199951171875,1460
2019-12-04,1477.5,1483.4000244140625,1471.199951171875,1474.0,1474.0,613
2019-12-05,1474.699951171875,1478.0,1472.300048828125,1476.9000244140625,1476.9000244140625,907
2019-12-06,1475.0,1476.0,1458.199951171875,1459.0999755859375,1459.0999755859375,899
2019-12-09,1458.800048828125,1464.199951171875,1458.5999755859375,1459.300048828125,1459.300048828125,1461
2019-12-10,1460.699951171875,1467.199951171875,1460.699951171875,1462.5999755859375,1462.5999755859375,367
2019-12-11,1463.0999755859375,1475.4000244140625,1463.0999755859375,1469.4000244140625,1469.4000244140625,393
2019-12-12,1475.0999755859375,1483.9000244140625,1463.699951171875,1466.699951171875,1466.699951171875,955
2019-12-13,1463.0999755859375,1475.9000244140625,1463.0999755859375,1475.5999755859375,1475.5999755859375,468
2019-12-16,1473.800048828125,1475.300048828125,1473.800048828125,1475.0,1475.0,99
2019-12-17,1474.0999755859375,1476.9000244140625,1474.0,1474.5999755859375,1474.5999755859375,410
2019-12-18,1472.5999755859375,1472.5999755859375,1472.5999755859375,1472.5999755859375,1472.5999755859375,250
2019-12-19,1475.9000244140625,1478.9000244140625,1473.300048828125,1478.199951171875,1478.199951171875,319
2019-12-20,1476.699951171875,1478.0999755859375,1474.699951171875,1474.699951171875,1474.699951171875,118
2019-12-23,1482.300048828125,1482.5,1479.9000244140625,1482.5,1482.5,391
2019-12-24,1488.699951171875,1499.0999755859375,1488.699951171875,1499.0999755859375,1499.0999755859375,52
2019-12-26,1505.199951171875,1512.300048828125,1505.0,1509.300048828125,1509.300048828125,126
2019-12-27,1513.800048828125,1513.800048828125,1513.800048828125,1513.800048828125,1513.800048828125,839
2019-12-30,1512.5999755859375,1515.0999755859375,1510.0,1514.5,1514.5,446
2019-12-31,1513.800048828125,1523.4000244140625,1513.800048828125,1519.5,1519.5,301
2020-01-02,1518.0999755859375,1528.699951171875,1518.0,1524.5,1524.5,214
2020-01-03,1530.0999755859375,1552.699951171875,1530.0999755859375,1549.199951171875,1549.199951171875,107
2020-01-06,1580.0,1580.0,1560.4000244140625,1566.199951171875,1566.199951171875,416
2020-01-07,1558.300048828125,1576.300048828125,1558.300048828125,1571.800048828125,1571.800048828125,47
2020-01-08,1579.699951171875,1604.199951171875,1552.300048828125,1557.4000244140625,1557.4000244140625,236
2020-01-09,1555.699951171875,1555.699951171875,1543.300048828125,1551.699951171875,1551.699951171875,54
2020-01-10,1551.199951171875,1558.800048828125,1545.4000244140625,1557.5,1557.5,16
2020-01-13,1557.4000244140625,1558.0,1548.4000244140625,1548.4000244140625,1548.4000244140625,48
2020-01-14,1546.699951171875,1546.699951171875,1534.9000244140625,1542.4000244140625,1542.4000244140625,32
2020-01-15,1548.0,1553.9000244140625,1545.5999755859375,1552.0999755859375,1552.0999755859375,11
2020-01-16,1555.699951171875,1556.0999755859375,1548.5,1549.0,1549.0,98
2020-01-17,1554.0999755859375,1558.800048828125,1553.5999755859375,1558.800048828125,1558.800048828125,108
2020-01-21,1559.300048828125,1566.199951171875,1551.0,1556.4000244140625,1556.4000244140625,45
2020-01-22,1549.800048828125,1557.0999755859375,1549.800048828125,1555.300048828125,1555.300048828125,42
2020-01-23,1553.0999755859375,1564.5999755859375,1552.199951171875,1564.5999755859375,1564.5999755859375,15
2020-01-24,1556.300048828125,1571.0999755859375,1556.300048828125,1571.0999755859375,1571.0999755859375,43
2020-01-27,1584.300048828125,1584.5,1576.800048828125,1576.800048828125,1576.800048828125,22
2020-01-28,1576.4000244140625,1576.4000244140625,1569.199951171875,1569.199951171875,1569.199951171875,3
2020-01-29,1569.800048828125,1569.800048828125,1569.800048828125,1569.800048828125,1569.800048828125,251274
2020-01-30,1576.800048828125,1585.0,1571.4000244140625,1583.5,1583.5,62336
2020-01-31,1573.4000244140625,1589.0,1570.0,1582.9000244140625,1582.9000244140625,1095
2020-02-03,1592.9000244140625,1593.300048828125,1568.199951171875,1577.199951171875,1577.199951171875,1062
2020-02-04,1577.699951171875,1577.699951171875,1547.800048828125,1550.4000244140625,1550.4000244140625,978
2020-02-05,1553.199951171875,1560.699951171875,1547.699951171875,1557.800048828125,1557.800048828125,1305
2020-02-06,1553.5999755859375,1565.5999755859375,1551.5999755859375,1565.0999755859375,1565.0999755859375,110
2020-02-07,1564.9000244140625,1571.9000244140625,1560.5,1568.5999755859375,1568.5999755859375,431
2020-02-10,1569.300048828125,1574.699951171875,1568.5999755859375,1574.699951171875,1574.699951171875,128
2020-02-11,1570.9000244140625,1571.0999755859375,1561.9000244140625,1565.5999755859375,1565.5999755859375,440
2020-02-12,1565.199951171875,1568.699951171875,1561.0,1567.4000244140625,1567.4000244140625,36
2020-02-13,1570.199951171875,1575.0999755859375,1570.199951171875,1575.0999755859375,1575.0999755859375,74
2020-02-14,1575.800048828125,1582.699951171875,1574.800048828125,1582.699951171875,1582.699951171875,68
2020-02-18,1579.800048828125,1604.300048828125,1579.800048828125,1600.0,1600.0,310
2020-02-19,1600.5999755859375,1610.5,1599.699951171875,1607.5,1607.5,542
2020-02-20,1606.5,1621.0,1603.0,1616.5999755859375,1616.5999755859375,117
2020-02-21,1619.300048828125,1645.0,1619.300048828125,1644.5999755859375,1644.5999755859375,186
2020-02-24,1657.0,1686.5999755859375,1650.0,1672.4000244140625,1672.4000244140625,435
2020-02-25,1645.0999755859375,1653.699951171875,1632.300048828125,1646.9000244140625,1646.9000244140625,409
2020-02-26,1644.0,1648.0999755859375,1636.4000244140625,1640.0,1640.0,1990
2020-02-27,1641.0999755859375,1658.0,1638.5,1640.0,1640.0,707
2020-02-28,1640.300048828125,1642.5,1564.0999755859375,1564.0999755859375,1564.0999755859375,289
2020-03-02,1583.9000244140625,1608.300048828125,1574.300048828125,1592.300048828125,1592.300048828125,537
2020-03-03,1594.5,1645.300048828125,1594.0,1642.0999755859375,1642.0999755859375,610
2020-03-04,1645.4000244140625,1645.9000244140625,1631.300048828125,1641.0999755859375,1641.0999755859375,83
2020-03-05,1637.300048828125,1672.9000244140625,1637.199951171875,1666.4000244140625,1666.4000244140625,154
2020-03-06,1670.800048828125,1686.199951171875,1647.199951171875,1670.800048828125,1670.800048828125,175
2020-03-09,1696.0999755859375,1701.5999755859375,1657.699951171875,1674.5,1674.5,161
2020-03-10,1671.5999755859375,1674.5999755859375,1643.0,1659.0999755859375,1659.0999755859375,48
2020-03-11,1656.5999755859375,1666.5,1635.0,1641.4000244140625,1641.4000244140625,47
2020-03-12,1637.0,1647.5,1566.4000244140625,1589.300048828125,1589.300048828125,256
2020-03-13,1574.9000244140625,1589.800048828125,1513.800048828125,1515.699951171875,1515.699951171875,89
2020-03-16,1569.0999755859375,1569.0999755859375,1452.0999755859375,1485.9000244140625,1485.9000244140625,193
2020-03-17,1469.300048828125,1537.699951171875,1469.300048828125,1524.9000244140625,1524.9000244140625,122
2020-03-18,1537.5,1542.0,1477.300048828125,1477.300048828125,1477.300048828125,333
2020-03-19,1481.5,1491.5999755859375,1471.0,1478.5999755859375,1478.5999755859375,262
2020-03-20,1483.5,1484.0,1483.5,1484.0,1484.0,14
2020-03-23,1505.300048828125,1567.0,1490.199951171875,1567.0,1567.0,51
2020-03-24,1592.699951171875,1685.5,1592.699951171875,1660.199951171875,1660.199951171875,442
2020-03-25,1676.5,1676.5,1631.0999755859375,1632.300048828125,1632.300048828125,476
2020-03-26,1660.5,1660.5,1650.0999755859375,1650.0999755859375,1650.0999755859375,3
2020-03-27,1623.9000244140625,1623.9000244140625,1623.9000244140625,1623.9000244140625,1623.9000244140625,100638
2020-03-30,1641.199951171875,1652.800048828125,1607.199951171875,1622.0,1622.0,16389
2020-03-31,1618.699951171875,1621.0,1576.0,1583.4000244140625,1583.4000244140625,2874
2020-04-01,1570.0,1600.0,1570.0,1578.199951171875,1578.199951171875,2158
2020-04-02,1590.9000244140625,1631.199951171875,1586.0,1625.699951171875,1625.699951171875,1294
2020-04-03,1624.5,1636.0,1619.800048828125,1633.699951171875,1633.699951171875,643
2020-04-06,1629.0999755859375,1696.699951171875,1625.9000244140625,1677.0,1677.0,1063
2020-04-07,1695.699951171875,1724.4000244140625,1658.0,1664.800048828125,1664.800048828125,1144
2020-04-08,1669.699951171875,1677.0,1662.5,1665.4000244140625,1665.4000244140625,747
2020-04-09,1662.699951171875,1736.199951171875,1662.699951171875,1736.199951171875,1736.199951171875,825
2020-04-13,1722.0,1756.800048828125,1710.699951171875,1744.800048828125,1744.800048828125,696
2020-04-14,1756.800048828125,1775.0,1739.5,1756.699951171875,1756.699951171875,675
2020-04-15,1739.4000244140625,1744.9000244140625,1722.699951171875,1727.199951171875,1727.199951171875,642
2020-04-16,1731.0,1750.5999755859375,1715.0,1720.4000244140625,1720.4000244140625,162
2020-04-17,1715.699951171875,1725.0,1684.9000244140625,1689.199951171875,1689.199951171875,223
2020-04-20,1686.0,1701.5999755859375,1680.0,1701.5999755859375,1701.5999755859375,106
2020-04-21,1697.0,1707.0999755859375,1659.9000244140625,1678.199951171875,1678.199951171875,666
2020-04-22,1696.0,1728.699951171875,1684.800048828125,1728.699951171875,1728.699951171875,453
2020-04-23,1734.0,1745.0999755859375,1733.300048828125,1733.300048828125,1733.300048828125,482
2020-04-24,1744.0,1744.0,1714.5,1723.5,1723.5,221
2020-04-27,1731.9000244140625,1731.9000244140625,1711.9000244140625,1711.9000244140625,1711.9000244140625,169
2020-04-28,1716.5999755859375,1716.5999755859375,1707.0999755859375,1710.5,1710.5,1255
2020-04-29,1710.0,1713.5,1702.0,1703.4000244140625,1703.4000244140625,373
2020-04-30,1719.300048828125,1719.300048828125,1680.800048828125,1684.199951171875,1684.199951171875,327
2020-05-01,1686.5999755859375,1701.5,1670.5,1694.5,1694.5,337
2020-05-04,1702.5999755859375,1709.0,1699.5999755859375,1706.9000244140625,1706.9000244140625,320
2020-05-05,1701.5,1704.4000244140625,1697.199951171875,1704.4000244140625,1704.4000244140625,82
2020-05-06,1704.0,1704.0,1684.199951171875,1684.199951171875,1684.199951171875,469
2020-05-07,1686.199951171875,1721.800048828125,1685.5999755859375,1721.800048828125,1721.800048828125,853
2020-05-08,1726.199951171875,1728.9000244140625,1703.800048828125,1709.9000244140625,1709.9000244140625,330
2020-05-11,1702.300048828125,1704.5,1690.199951171875,1695.300048828125,1695.300048828125,749
2020-05-12,1699.300048828125,1713.0999755859375,1699.300048828125,1704.4000244140625,1704.4000244140625,324
2020-05-13,1702.0,1721.300048828125,1701.9000244140625,1713.9000244140625,1713.9000244140625,431
2020-05-14,1724.300048828125,1743.0999755859375,1720.5,1738.0999755859375,1738.0999755859375,672
2020-05-15,1739.699951171875,1753.4000244140625,1739.699951171875,1753.4000244140625,1753.4000244140625,719
2020-05-18,1755.699951171875,1770.5,1731.800048828125,1731.800048828125,1731.800048828125,229
2020-05-19,1744.199951171875,1749.5,1744.199951171875,1744.199951171875,1744.199951171875,167
2020-05-20,1751.5999755859375,1752.0999755859375,1745.5999755859375,1750.5999755859375,1750.5999755859375,16
2020-05-21,1746.800048828125,1746.800048828125,1720.5,1720.5,1720.5,528
2020-05-22,1726.5999755859375,1734.5999755859375,1726.5999755859375,1734.5999755859375,1734.5999755859375,6
2020-05-26,1726.4000244140625,1726.4000244140625,1704.800048828125,1704.800048828125,1704.800048828125,39
2020-05-27,1685.5999755859375,1710.300048828125,1685.5999755859375,1710.300048828125,1710.300048828125,137416
2020-05-28,1709.300048828125,1727.800048828125,1705.0,1713.300048828125,1713.300048828125,23355
2020-05-29,1718.800048828125,1738.300048828125,1715.0999755859375,1736.9000244140625,1736.9000244140625,1526
2020-06-01,1740.4000244140625,1747.0,1727.0999755859375,1737.800048828125,1737.800048828125,871
2020-06-02,1743.0,1745.5,1721.800048828125,1725.199951171875,1725.199951171875,741
2020-06-03,1726.300048828125,1726.300048828125,1684.5,1697.800048828125,1697.800048828125,2755
2020-06-04,1694.5,1718.9000244140625,1694.5,1718.9000244140625,1718.9000244140625,807
2020-06-05,1711.800048828125,1711.800048828125,1668.5999755859375,1676.199951171875,1676.199951171875,1502
2020-06-08,1679.0999755859375,1699.4000244140625,1675.9000244140625,1698.300048828125,1698.300048828125,587
2020-06-09,1694.5999755859375,1720.9000244140625,1692.0,1714.699951171875,1714.699951171875,690
2020-06-10,1716.0999755859375,1740.800048828125,1711.9000244140625,1713.300048828125,1713.300048828125,718
2020-06-11,1737.199951171875,1744.0999755859375,1720.0,1732.0,1732.0,347
2020-06-12,1724.9000244140625,1743.0,1724.9000244140625,1729.300048828125,1729.300048828125,318
2020-06-15,1730.0,1730.0,1703.300048828125,1720.300048828125,1720.300048828125,188
2020-06-16,1726.300048828125,1729.5999755859375,1722.4000244140625,1729.5999755859375,1729.5999755859375,22
2020-06-17,1714.699951171875,1729.199951171875,1714.699951171875,1729.199951171875,1729.199951171875,51
2020-06-18,1730.5,1734.0999755859375,1717.300048828125,1724.800048828125,1724.800048828125,110
2020-06-19,1723.699951171875,1750.699951171875,1723.5,1745.9000244140625,1745.9000244140625,1329
2020-06-22,1755.199951171875,1767.5999755859375,1750.5,1756.699951171875,1756.699951171875,1356
2020-06-23,1755.4000244140625,1776.300048828125,1754.199951171875,1772.0999755859375,1772.0999755859375,666
2020-06-24,1778.300048828125,1783.0999755859375,1764.5,1765.800048828125,1765.800048828125,961
2020-06-25,1761.699951171875,1764.800048828125,1759.800048828125,1762.0999755859375,1762.0999755859375,207
2020-06-26,1766.0,1772.5,1764.699951171875,1772.5,1772.5,640
2020-06-29,1779.800048828125,1780.199951171875,1774.300048828125,1774.800048828125,1774.800048828125,584
2020-06-30,1777.300048828125,1793.199951171875,1774.4000244140625,1793.0,1793.0,986
2020-07-01,1793.5999755859375,1798.0,1765.800048828125,1773.199951171875,1773.199951171875,331
2020-07-02,1773.4000244140625,1784.0,1768.699951171875,1784.0,1784.0,215
2020-07-06,1788.199951171875,1790.0999755859375,1788.199951171875,1788.5,1788.5,172
2020-07-07,1789.300048828125,1804.199951171875,1783.300048828125,1804.199951171875,1804.199951171875,751
2020-07-08,1801.5,1817.9000244140625,1801.5,1815.5,1815.5,209
2020-07-09,1816.0999755859375,1819.800048828125,1799.199951171875,1799.199951171875,1799.199951171875,396
2020-07-10,1805.5,1805.5,1797.699951171875,1798.199951171875,1798.199951171875,236
2020-07-13,1805.0,1811.0,1805.0,1811.0,1811.0,164
2020-07-14,1791.0,1811.5,1791.0,1810.5999755859375,1810.5999755859375,339
2020-07-15,1806.0999755859375,1813.5,1806.0999755859375,1811.4000244140625,1811.4000244140625,167
2020-07-16,1810.9000244140625,1810.9000244140625,1794.300048828125,1798.699951171875,1798.699951171875,146
2020-07-17,1798.5,1810.0999755859375,1798.5,1808.300048828125,1808.300048828125,24
2020-07-20,1807.0,1817.300048828125,1807.0,1815.9000244140625,1815.9000244140625,89
2020-07-21,1822.0,1842.4000244140625,1822.0,1842.4000244140625,1842.4000244140625,117
2020-07-22,1858.0999755859375,1867.0,1854.699951171875,1864.0999755859375,1864.0999755859375,213
2020-07-23,1868.699951171875,1890.300048828125,1868.5,1889.0999755859375,1889.0999755859375,133
2020-07-24,1884.300048828125,1897.300048828125,1884.300048828125,1897.300048828125,1897.300048828125,474
2020-07-27,1901.699951171875,1938.0,1901.5,1931.0,1931.0,364
2020-07-28,1931.5,1944.699951171875,1928.5999755859375,1944.699951171875,1944.699951171875,825
2020-07-29,1953.199951171875,1953.5,1952.5999755859375,1953.5,1953.5,209835
2020-07-30,1963.4000244140625,1965.0999755859375,1930.0,1942.300048828125,1942.300048828125,28853
2020-07-31,1948.5999755859375,1981.0999755859375,1948.0,1962.800048828125,1962.800048828125,2914
2020-08-03,1984.300048828125,1984.300048828125,1955.5,1966.0,1966.0,683
2020-08-04,1971.0,2016.199951171875,1968.800048828125,2001.199951171875,2001.199951171875,2010
2020-08-05,2024.0,2050.199951171875,2011.0,2031.0999755859375,2031.0999755859375,1422
2020-08-06,2045.5,2063.0,2040.0,2051.5,2051.5,294
2020-08-07,2040.0999755859375,2055.0,2009.5999755859375,2010.0999755859375,2010.0999755859375,808
2020-08-10,2026.4000244140625,2043.800048828125,2017.5,2024.4000244140625,2024.4000244140625,233
2020-08-11,2012.4000244140625,2016.0,1904.0,1932.5999755859375,1932.5999755859375,971
2020-08-12,1923.0,1946.5999755859375,1871.5999755859375,1934.9000244140625,1934.9000244140625,404
2020-08-13,1921.5,1957.4000244140625,1916.9000244140625,1956.699951171875,1956.699951171875,71
2020-08-14,1938.699951171875,1947.4000244140625,1937.0,1937.0,1937.0,201
2020-08-17,1949.5999755859375,1985.0,1949.5999755859375,1985.0,1985.0,97
2020-08-18,2001.0999755859375,2002.800048828125,1972.0999755859375,1999.4000244140625,1999.4000244140625,92
2020-08-19,1980.0,1980.0,1938.699951171875,1958.699951171875,1958.699951171875,347
2020-08-20,1941.199951171875,1948.300048828125,1922.300048828125,1933.800048828125,1933.800048828125,106
2020-08-21,1941.0,1945.0,1908.9000244140625,1934.5999755859375,1934.5999755859375,184
2020-08-24,1930.199951171875,1940.0,1922.199951171875,1927.699951171875,1927.699951171875,85
2020-08-25,1927.5,1928.5,1911.800048828125,1911.800048828125,1911.800048828125,176
2020-08-26,1909.699951171875,1950.800048828125,1909.699951171875,1940.699951171875,1940.699951171875,287
2020-08-27,1948.9000244140625,1972.5,1921.5999755859375,1921.5999755859375,1921.5999755859375,2303
2020-08-28,1927.0999755859375,1971.300048828125,1922.5,1964.5999755859375,1964.5999755859375,778
2020-08-31,1970.0,1971.300048828125,1953.300048828125,1967.5999755859375,1967.5999755859375,158
2020-09-01,1961.699951171875,1986.300048828125,1961.699951171875,1968.199951171875,1968.199951171875,186
2020-09-02,1967.300048828125,1967.300048828125,1934.4000244140625,1934.4000244140625,1934.4000244140625,71
2020-09-03,1937.0999755859375,1938.800048828125,1923.0,1927.5999755859375,1927.5999755859375,179
2020-09-04,1927.9000244140625,1939.699951171875,1917.699951171875,1923.9000244140625,1923.9000244140625,607
2020-09-08,1930.9000244140625,1937.9000244140625,1903.0999755859375,1933.0,1933.0,271
2020-09-09,1926.9000244140625,1946.199951171875,1924.5999755859375,1944.699951171875,1944.699951171875,219
2020-09-10,1944.0999755859375,1962.699951171875,1944.0999755859375,1954.199951171875,1954.199951171875,722
2020-09-11,1944.0,1949.5,1937.800048828125,1937.800048828125,1937.800048828125,73
2020-09-14,1946.300048828125,1953.0999755859375,1943.0,1953.0999755859375,1953.0999755859375,55
2020-09-15,1955.800048828125,1968.5,1955.800048828125,1956.300048828125,1956.300048828125,74
2020-09-16,1961.300048828125,1961.4000244140625,1956.699951171875,1960.199951171875,1960.199951171875,124
2020-09-17,1939.0,1946.0,1933.699951171875,1940.0,1940.0,67
2020-09-18,1950.5,1952.0999755859375,1949.0,1952.0999755859375,1952.0999755859375,38
2020-09-21,1946.199951171875,1946.199951171875,1883.4000244140625,1901.199951171875,1901.199951171875,52
2020-09-22,1913.0999755859375,1913.0999755859375,1898.5999755859375,1898.5999755859375,1898.5999755859375,331
2020-09-23,1875.5,1875.5,1859.9000244140625,1859.9000244140625,1859.9000244140625,5
2020-09-24,1851.5,1868.300048828125,1851.5,1868.300048828125,1868.300048828125,365
2020-09-25,1856.300048828125,1857.699951171875,1856.300048828125,1857.699951171875,1857.699951171875,4
2020-09-28,1872.800048828125,1872.800048828125,1872.800048828125,1872.800048828125,1872.800048828125,10455
2020-09-29,1876.5,1895.4000244140625,1872.4000244140625,1894.300048828125,1894.300048828125,3283
2020-09-30,1893.0,1899.699951171875,1879.800048828125,1887.5,1887.5,600
2020-10-01,1884.0999755859375,1909.5999755859375,1882.5,1908.4000244140625,1908.4000244140625,730
2020-10-02,1893.9000244140625,1913.0,1893.9000244140625,1900.199951171875,1900.199951171875,530
2020-10-05,1898.9000244140625,1915.5999755859375,1884.699951171875,1912.5,1912.5,1360
2020-10-06,1906.5999755859375,1918.0,1874.4000244140625,1901.0999755859375,1901.0999755859375,968
2020-10-07,1874.0999755859375,1889.800048828125,1873.0999755859375,1883.5999755859375,1883.5999755859375,50
2020-10-08,1893.0,1893.0,1882.699951171875,1888.5999755859375,1888.5999755859375,348
2020-10-09,1909.300048828125,1929.0999755859375,1905.0999755859375,1919.5,1919.5,580
2020-10-12,1924.0,1926.5,1921.5999755859375,1922.5,1922.5,96
2020-10-13,1921.9000244140625,1922.199951171875,1887.0,1888.5,1888.5,191
2020-10-14,1889.699951171875,1910.800048828125,1882.5,1901.300048828125,1901.300048828125,33
2020-10-15,1897.300048828125,1906.300048828125,1889.5999755859375,1903.199951171875,1903.199951171875,254
2020-10-16,1898.5,1900.800048828125,1898.5,1900.800048828125,1900.800048828125,53
2020-10-19,1907.300048828125,1907.800048828125,1899.5,1906.4000244140625,1906.4000244140625,43
2020-10-20,1901.300048828125,1910.4000244140625,1896.0999755859375,1910.4000244140625,1910.4000244140625,329
2020-10-21,1913.5999755859375,1927.300048828125,1913.5999755859375,1924.5999755859375,1924.5999755859375,1202
2020-10-22,1924.300048828125,1924.300048828125,1898.199951171875,1901.0999755859375,1901.0999755859375,899
2020-10-23,1899.9000244140625,1913.300048828125,1896.199951171875,1902.0,1902.0,287
2020-10-26,1895.5,1907.0,1893.5,1902.699951171875,1902.699951171875,242
2020-10-27,1904.5999755859375,1908.800048828125,1904.4000244140625,1908.800048828125,1908.800048828125,176
2020-10-28,1870.9000244140625,1876.199951171875,1870.9000244140625,1876.199951171875,1876.199951171875,277
2020-10-29,1876.0999755859375,1879.800048828125,1858.800048828125,1865.5999755859375,1865.5999755859375,240
2020-10-30,1862.800048828125,1886.5999755859375,1862.800048828125,1877.4000244140625,1877.4000244140625,725
2020-11-02,1872.9000244140625,1894.699951171875,1872.9000244140625,1890.4000244140625,1890.4000244140625,190
2020-11-03,1891.5,1908.5,1891.5,1908.5,1908.5,712
2020-11-04,1893.800048828125,1907.0,1885.300048828125,1894.5999755859375,1894.5999755859375,782
2020-11-05,1901.699951171875,1948.0,1901.699951171875,1945.300048828125,1945.300048828125,135
2020-11-06,1940.800048828125,1958.800048828125,1940.800048828125,1950.300048828125,1950.300048828125,304
2020-11-09,1955.5999755859375,1963.199951171875,1847.0999755859375,1853.199951171875,1853.199951171875,745
2020-11-10,1879.300048828125,1885.300048828125,1871.199951171875,1875.4000244140625,1875.4000244140625,276
2020-11-11,1878.800048828125,1878.800048828125,1855.5,1860.699951171875,1860.699951171875,222
2020-11-12,1869.0,1878.5,1866.5999755859375,1872.5999755859375,1872.5999755859375,220
2020-11-13,1877.0,1890.0999755859375,1876.800048828125,1885.699951171875,1885.699951171875,240
2020-11-16,1874.5999755859375,1887.300048828125,1871.0,1887.300048828125,1887.300048828125,6
2020-11-17,1888.4000244140625,1888.4000244140625,1884.5,1884.5,1884.5,59
2020-11-18,1873.5,1873.5,1873.5,1873.5,1873.5,152
2020-11-19,1865.800048828125,1865.800048828125,1856.0,1861.0999755859375,1861.0999755859375,59
2020-11-20,1871.199951171875,1872.5999755859375,1871.199951171875,1872.5999755859375,1872.5999755859375,1900
2020-11-23,1834.800048828125,1837.800048828125,1829.199951171875,1837.800048828125,1837.800048828125,843
2020-11-24,1829.300048828125,1829.300048828125,1799.300048828125,1804.800048828125,1804.800048828125,1041
2020-11-25,1801.4000244140625,1805.699951171875,1801.4000244140625,1805.699951171875,1805.699951171875,205754
2020-11-27,1806.0999755859375,1817.0,1770.699951171875,1781.9000244140625,1781.9000244140625,71804
2020-11-30,1785.0,1787.199951171875,1762.300048828125,1775.699951171875,1775.699951171875,3145
2020-12-01,1775.0,1815.9000244140625,1774.9000244140625,1814.0999755859375,1814.0999755859375,1859
2020-12-02,1811.300048828125,1830.0,1807.800048828125,1825.699951171875,1825.699951171875,771
2020-12-03,1829.199951171875,1842.0,1825.300048828125,1836.800048828125,1836.800048828125,1765
2020-12-04,1840.699951171875,1847.5999755859375,1828.199951171875,1835.9000244140625,1835.9000244140625,1213
2020-12-07,1836.5,1866.9000244140625,1820.800048828125,1861.800048828125,1861.800048828125,1427
2020-12-08,1863.0,1875.800048828125,1861.800048828125,1870.800048828125,1870.800048828125,121
2020-12-09,1867.0999755859375,1867.0999755859375,1827.0,1834.5999755859375,1834.5999755859375,215
2020-12-10,1833.199951171875,1849.0999755859375,1828.0,1833.5999755859375,1833.5999755859375,177
2020-12-11,1838.5,1846.0,1829.0999755859375,1839.800048828125,1839.800048828125,109
2020-12-14,1835.5,1835.699951171875,1822.699951171875,1828.699951171875,1828.699951171875,258
2020-12-15,1833.5,1853.5999755859375,1833.199951171875,1852.300048828125,1852.300048828125,961
2020-12-16,1856.5,1864.699951171875,1850.5,1856.0999755859375,1856.0999755859375,1090
2020-12-17,1874.199951171875,1896.199951171875,1874.199951171875,1887.199951171875,1887.199951171875,414
2020-12-18,1882.4000244140625,1889.5,1882.300048828125,1885.699951171875,1885.699951171875,276
2020-12-21,1884.800048828125,1908.0,1869.0999755859375,1879.199951171875,1879.199951171875,136
2020-12-22,1882.199951171875,1882.199951171875,1861.0,1866.5999755859375,1866.5999755859375,233
2020-12-23,1867.0,1878.800048828125,1864.5,1874.699951171875,1874.699951171875,82
2020-12-24,1877.300048828125,1879.9000244140625,1875.699951171875,1879.9000244140625,1879.9000244140625,46
2020-12-28,1895.5,1895.800048828125,1873.699951171875,1877.199951171875,1877.199951171875,75
2020-12-29,1881.300048828125,1881.300048828125,1879.699951171875,1879.699951171875,1879.699951171875,343
2020-12-30,1879.9000244140625,1895.800048828125,1877.300048828125,1891.0,1891.0,444
2020-12-31,1897.0,1901.300048828125,1892.699951171875,1893.0999755859375,1893.0999755859375,127
2021-01-04,1912.199951171875,1945.0999755859375,1912.199951171875,1944.699951171875,1944.699951171875,154
2021-01-05,1941.699951171875,1952.699951171875,1941.300048828125,1952.699951171875,1952.699951171875,113
2021-01-06,1952.0,1959.9000244140625,1901.5,1906.9000244140625,1906.9000244140625,331
2021-01-07,1922.5999755859375,1926.699951171875,1912.0,1912.300048828125,1912.300048828125,122
2021-01-08,1908.0,1908.0,1834.0999755859375,1834.0999755859375,1834.0999755859375,60
2021-01-11,1826.5,1849.5999755859375,1826.5,1849.5999755859375,1849.5999755859375,20
2021-01-12,1849.0,1859.699951171875,1839.4000244140625,1842.9000244140625,1842.9000244140625,176
2021-01-13,1858.0,1858.5999755859375,1853.5999755859375,1853.5999755859375,1853.5999755859375,189
2021-01-14,1836.699951171875,1850.699951171875,1836.699951171875,1850.300048828125,1850.300048828125,149
2021-01-15,1829.4000244140625,1829.4000244140625,1825.0,1829.300048828125,1829.300048828125,31
2021-01-19,1802.0,1842.9000244140625,1802.0,1839.5,1839.5,13
2021-01-20,1847.800048828125,1866.5999755859375,1844.4000244140625,1865.9000244140625,1865.9000244140625,16
2021-01-21,1865.300048828125,1868.0,1865.300048828125,1865.300048828125,1865.300048828125,6
2021-01-22,1854.9000244140625,1855.699951171875,1852.699951171875,1855.699951171875,1855.699951171875,8
2021-01-25,1864.699951171875,1864.699951171875,1851.800048828125,1854.9000244140625,1854.9000244140625,26
2021-01-26,1855.800048828125,1855.800048828125,1850.699951171875,1850.699951171875,1850.699951171875,59
2021-01-27,1844.9000244140625,1844.9000244140625,1844.9000244140625,1844.9000244140625,1844.9000244140625,195540
2021-01-28,1843.4000244140625,1862.9000244140625,1831.5,1837.9000244140625,1837.9000244140625,27283
2021-01-29,1842.0,1876.0,1838.699951171875,1847.300048828125,1847.300048828125,1634
2021-02-01,1866.5999755859375,1871.9000244140625,1850.0,1860.800048828125,1860.800048828125,1494
2021-02-02,1859.5999755859375,1861.300048828125,1827.5999755859375,1830.5,1830.5,1293
2021-02-03,1834.800048828125,1842.4000244140625,1829.800048828125,1832.199951171875,1832.199951171875,1195
2021-02-04,1832.199951171875,1832.199951171875,1782.800048828125,1788.9000244140625,1788.9000244140625,2375
2021-02-05,1794.300048828125,1813.5,1790.9000244140625,1810.9000244140625,1810.9000244140625,1278
2021-02-08,1816.300048828125,1836.699951171875,1809.0,1831.9000244140625,1831.9000244140625,254
2021-02-09,1841.9000244140625,1843.300048828125,1830.699951171875,1835.300048828125,1835.300048828125,184
2021-02-10,1842.5999755859375,1851.0999755859375,1837.0,1840.5999755859375,1840.5999755859375,543
2021-02-11,1840.5,1845.0,1820.9000244140625,1824.9000244140625,1824.9000244140625,602
2021-02-12,1825.0,1827.5,1809.199951171875,1821.5999755859375,1821.5999755859375,259
2021-02-16,1820.9000244140625,1823.4000244140625,1787.300048828125,1797.199951171875,1797.199951171875,1141
2021-02-17,1785.800048828125,1789.699951171875,1768.800048828125,1771.0999755859375,1771.0999755859375,614
2021-02-18,1776.0999755859375,1784.5999755859375,1766.0,1773.4000244140625,1773.4000244140625,587
2021-02-19,1764.300048828125,1787.5999755859375,1764.300048828125,1775.800048828125,1775.800048828125,118
2021-02-22,1784.0,1807.800048828125,1784.0,1806.699951171875,1806.699951171875,165
2021-02-23,1809.5999755859375,1811.300048828125,1796.4000244140625,1804.4000244140625,1804.4000244140625,569
2021-02-24,1805.800048828125,1805.800048828125,1796.4000244140625,1796.4000244140625,1796.4000244140625,1500
2021-02-25,1801.5,1802.0,1766.699951171875,1774.4000244140625,1774.4000244140625,1049
2021-02-26,1768.0999755859375,1768.199951171875,1718.800048828125,1728.0999755859375,1728.0999755859375,1593
2021-03-01,1737.0999755859375,1747.0,1720.300048828125,1722.5,1722.5,407
2021-03-02,1709.4000244140625,1733.0999755859375,1708.699951171875,1733.0999755859375,1733.0999755859375,867
2021-03-03,1730.0,1732.4000244140625,1703.5,1715.300048828125,1715.300048828125,501
2021-03-04,1706.5,1717.4000244140625,1700.199951171875,1700.199951171875,1700.199951171875,521
2021-03-05,1690.5999755859375,1701.0,1685.0,1698.0,1698.0,302
2021-03-08,1704.699951171875,1705.4000244140625,1673.699951171875,1677.699951171875,1677.699951171875,1290
2021-03-09,1686.199951171875,1717.5,1685.199951171875,1716.5999755859375,1716.5999755859375,335
2021-03-10,1713.5999755859375,1722.9000244140625,1711.0,1721.5,1721.5,412
2021-03-11,1725.5999755859375,1737.5,1720.199951171875,1722.300048828125,1722.300048828125,18
2021-03-12,1715.9000244140625,1722.5,1699.0,1719.5,1719.5,80
2021-03-15,1729.5,1731.9000244140625,1722.800048828125,1728.9000244140625,1728.9000244140625,147
2021-03-16,1732.300048828125,1733.9000244140625,1726.0,1730.5999755859375,1730.5999755859375,729
2021-03-17,1735.300048828125,1750.0999755859375,1725.5999755859375,1726.800048828125,1726.800048828125,488
2021-03-18,1745.800048828125,1750.300048828125,1721.800048828125,1732.199951171875,1732.199951171875,138
2021-03-19,1742.199951171875,1742.199951171875,1733.5999755859375,1741.4000244140625,1741.4000244140625,13
2021-03-22,1737.800048828125,1737.800048828125,1737.800048828125,1737.800048828125,1737.800048828125,51
2021-03-23,1724.699951171875,1724.699951171875,1724.699951171875,1724.699951171875,1724.699951171875,6
2021-03-24,1727.5,1732.9000244140625,1727.5,1732.9000244140625,1732.9000244140625,26
2021-03-25,1732.699951171875,1733.199951171875,1724.5,1724.9000244140625,1724.9000244140625,15
2021-03-26,1721.300048828125,1732.199951171875,1721.300048828125,1732.199951171875,1732.199951171875,33
2021-03-29,1712.0999755859375,1712.0999755859375,1712.0999755859375,1712.0999755859375,1712.0999755859375,135457
2021-03-30,1711.0,1712.5999755859375,1676.5,1683.9000244140625,1683.9000244140625,25316
2021-03-31,1683.699951171875,1713.800048828125,1676.5,1713.800048828125,1713.800048828125,762
2021-04-01,1706.800048828125,1728.800048828125,1706.4000244140625,1726.5,1726.5,720
2021-04-05,1727.9000244140625,1729.699951171875,1721.9000244140625,1727.0,1727.0,275
2021-04-06,1726.9000244140625,1744.800048828125,1726.9000244140625,1741.5,1741.5,890
2021-04-07,1742.699951171875,1742.699951171875,1733.699951171875,1740.0999755859375,1740.0999755859375,557
2021-04-08,1736.0,1758.0,1734.5999755859375,1756.800048828125,1756.800048828125,1298
2021-04-09,1750.800048828125,1750.800048828125,1733.300048828125,1743.300048828125,1743.300048828125,484
2021-04-12,1740.800048828125,1740.800048828125,1726.699951171875,1731.199951171875,1731.199951171875,40
2021-04-13,1733.800048828125,1746.9000244140625,1722.0999755859375,1746.199951171875,1746.199951171875,367
2021-04-14,1741.300048828125,1745.9000244140625,1732.699951171875,1734.9000244140625,1734.9000244140625,1037
2021-04-15,1740.0999755859375,1767.9000244140625,1740.0999755859375,1765.4000244140625,1765.4000244140625,368
2021-04-16,1770.4000244140625,1779.5,1770.0999755859375,1779.0,1779.0,625
2021-04-19,1782.0999755859375,1788.5,1769.4000244140625,1769.4000244140625,1769.4000244140625,144
2021-04-20,1769.300048828125,1777.300048828125,1765.5,1777.300048828125,1777.300048828125,1464
2021-04-21,1783.0,1794.0999755859375,1777.699951171875,1792.300048828125,1792.300048828125,250
2021-04-22,1794.199951171875,1794.199951171875,1779.5,1781.199951171875,1781.199951171875,159
2021-04-23,1786.0999755859375,1794.5,1772.0,1777.0,1777.0,332
2021-04-26,1778.0,1779.699951171875,1770.800048828125,1779.199951171875,1779.199951171875,549
2021-04-27,1780.0,1782.0,1777.699951171875,1778.0,1778.0,117
2021-04-28,1768.199951171875,1774.0,1764.5999755859375,1773.199951171875,1773.199951171875,756
2021-04-29,1781.0,1789.0,1758.5999755859375,1768.0999755859375,1768.0999755859375,196
2021-04-30,1771.800048828125,1771.800048828125,1763.9000244140625,1767.300048828125,1767.300048828125,18
2021-05-03,1788.5,1793.0,1788.5,1791.4000244140625,1791.4000244140625,18
2021-05-04,1788.199951171875,1788.5,1774.800048828125,1775.800048828125,1775.800048828125,182
2021-05-05,1781.5,1784.0999755859375,1779.199951171875,1784.0999755859375,1784.0999755859375,57
2021-05-06,1788.9000244140625,1815.5,1787.5999755859375,1815.5,1815.5,13
2021-05-07,1842.9000244140625,1842.9000244140625,1831.0999755859375,1831.0999755859375,1831.0999755859375,2
2021-05-10,1835.5999755859375,1845.5999755859375,1835.4000244140625,1837.5,1837.5,13
2021-05-11,1837.199951171875,1838.0999755859375,1831.5999755859375,1835.9000244140625,1835.9000244140625,420
2021-05-12,1825.199951171875,1825.199951171875,1821.699951171875,1822.5999755859375,1822.5999755859375,3
2021-05-13,1814.699951171875,1826.800048828125,1814.0999755859375,1823.800048828125,1823.800048828125,100
2021-05-14,1824.5,1842.9000244140625,1824.5,1837.9000244140625,1837.9000244140625,41
2021-05-17,1849.9000244140625,1867.5,1847.199951171875,1867.5,1867.5,13
2021-05-18,1870.5,1870.5,1867.800048828125,1867.800048828125,1867.800048828125,3
2021-05-19,1866.4000244140625,1884.9000244140625,1863.5999755859375,1881.300048828125,1881.300048828125,348
2021-05-20,1865.5,1885.0,1864.800048828125,1881.800048828125,1881.800048828125,85
2021-05-21,1872.0999755859375,1876.699951171875,1872.0999755859375,1876.699951171875,1876.699951171875,5
2021-05-24,1882.0999755859375,1884.5999755859375,1882.0999755859375,1884.5999755859375,1884.5999755859375,39
2021-05-25,1882.5,1898.0999755859375,1882.5,1898.0999755859375,1898.0999755859375,56
2021-05-26,1901.300048828125,1901.300048828125,1901.300048828125,1901.300048828125,1901.300048828125,170526
2021-05-27,1896.800048828125,1903.9000244140625,1888.199951171875,1895.699951171875,1895.699951171875,35794
2021-05-28,1897.5,1905.4000244140625,1881.9000244140625,1902.5,1902.5,2415
2021-06-01,1905.0999755859375,1916.199951171875,1892.800048828125,1902.9000244140625,1902.9000244140625,640
2021-06-02,1899.199951171875,1908.800048828125,1896.0,1907.5,1907.5,1267
2021-06-03,1908.800048828125,1908.800048828125,1865.0,1871.199951171875,1871.199951171875,1021
2021-06-04,1869.300048828125,1895.5,1854.0,1889.800048828125,1889.800048828125,367
2021-06-07,1890.5,1899.699951171875,1883.199951171875,1896.800048828125,1896.800048828125,87
2021-06-08,1896.5,1902.9000244140625,1890.0,1892.199951171875,1892.199951171875,930
2021-06-09,1894.9000244140625,1897.699951171875,1889.199951171875,1893.199951171875,1893.199951171875,148
2021-06-10,1887.699951171875,1899.800048828125,1871.5,1894.199951171875,1894.199951171875,186
2021-06-11,1900.9000244140625,1902.300048828125,1875.199951171875,1877.4000244140625,1877.4000244140625,349
2021-06-14,1866.199951171875,1866.5999755859375,1846.5,1864.0,1864.0,41
2021-06-15,1866.4000244140625,1867.199951171875,1854.4000244140625,1854.5,1854.5,78
2021-06-16,1859.4000244140625,1860.0999755859375,1809.199951171875,1859.5,1859.5,117
2021-06-17,1811.800048828125,1823.300048828125,1769.5999755859375,1773.800048828125,1773.800048828125,1135
2021-06-18,1775.699951171875,1792.4000244140625,1767.9000244140625,1767.9000244140625,1767.9000244140625,354
2021-06-21,1768.800048828125,1785.199951171875,1766.800048828125,1781.800048828125,1781.800048828125,38
2021-06-22,1783.4000244140625,1786.9000244140625,1775.9000244140625,1776.300048828125,1776.300048828125,101
2021-06-23,1780.699951171875,1793.199951171875,1780.5999755859375,1782.300048828125,1782.300048828125,136
2021-06-24,1778.9000244140625,1786.4000244140625,1775.5999755859375,1775.5999755859375,1775.5999755859375,78
2021-06-25,1777.699951171875,1788.0,1775.199951171875,1776.5999755859375,1776.5999755859375,35
2021-06-28,1779.5999755859375,1779.5999755859375,1779.5999755859375,1779.5999755859375,1779.5999755859375,888
2021-06-29,1776.800048828125,1777.0999755859375,1752.0999755859375,1762.800048828125,1762.800048828125,419
2021-06-30,1761.0999755859375,1770.800048828125,1759.199951171875,1770.800048828125,1770.800048828125,51
2021-07-01,1775.699951171875,1781.199951171875,1768.800048828125,1775.9000244140625,1775.9000244140625,44
2021-07-02,1778.699951171875,1787.9000244140625,1778.300048828125,1782.5999755859375,1782.5999755859375,23
2021-07-06,1786.699951171875,1809.800048828125,1786.699951171875,1793.5,1793.5,332
2021-07-07,1798.699951171875,1808.4000244140625,1797.199951171875,1801.5,1801.5,244
2021-07-08,1797.0,1818.5,1797.0,1799.5999755859375,1799.5999755859375,148
2021-07-09,1803.5999755859375,1810.0999755859375,1798.800048828125,1810.0,1810.0,218
2021-07-12,1802.5999755859375,1805.5,1799.5,1805.5,1805.5,147
2021-07-13,1808.0999755859375,1812.0,1800.5999755859375,1809.4000244140625,1809.4000244140625,78
2021-07-14,1813.0999755859375,1829.0,1813.0999755859375,1824.300048828125,1824.300048828125,707
2021-07-15,1831.5999755859375,1833.0,1823.4000244140625,1828.4000244140625,1828.4000244140625,99
2021-07-16,1830.0999755859375,1831.4000244140625,1814.5,1814.5,1814.5,78
2021-07-19,1803.300048828125,1813.4000244140625,1803.300048828125,1808.699951171875,1808.699951171875,33
2021-07-20,1812.9000244140625,1824.0,1810.9000244140625,1810.9000244140625,1810.9000244140625,128
2021-07-21,1807.0,1807.0,1800.0,1802.9000244140625,1802.9000244140625,135
2021-07-22,1793.5999755859375,1805.0,1793.5999755859375,1805.0,1805.0,2
2021-07-23,1800.0,1801.4000244140625,1800.0,1801.4000244140625,1801.4000244140625,1
2021-07-26,1802.5,1802.5,1797.199951171875,1798.699951171875,1798.699951171875,17
2021-07-27,1803.699951171875,1803.699951171875,1799.5,1799.5,1799.5,1
2021-07-28,1799.5,1799.5,1799.5,1799.5,1799.5,209783
2021-07-29,1806.5999755859375,1832.5999755859375,1806.0999755859375,1831.199951171875,1831.199951171875,30496
2021-07-30,1828.0,1830.5,1808.9000244140625,1812.5999755859375,1812.5999755859375,3100
2021-08-02,1812.4000244140625,1818.699951171875,1804.800048828125,1818.0999755859375,1818.0999755859375,1334
2021-08-03,1812.300048828125,1813.5,1806.0,1810.0999755859375,1810.0999755859375,3341
2021-08-04,1809.300048828125,1831.300048828125,1806.300048828125,1810.5,1810.5,2860
2021-08-05,1810.800048828125,1813.699951171875,1796.0,1805.0999755859375,1805.0999755859375,588
2021-08-06,1799.800048828125,1800.0999755859375,1758.4000244140625,1760.0,1760.0,859
2021-08-09,1753.5,1753.800048828125,1692.5999755859375,1723.4000244140625,1723.4000244140625,1621
2021-08-10,1728.5999755859375,1735.199951171875,1720.0999755859375,1728.800048828125,1728.800048828125,1363
2021-08-11,1727.300048828125,1752.199951171875,1727.300048828125,1750.4000244140625,1750.4000244140625,542
2021-08-12,1749.699951171875,1752.4000244140625,1745.5,1749.0,1749.0,739
2021-08-13,1758.300048828125,1777.300048828125,1757.4000244140625,1775.199951171875,1775.199951171875,436
2021-08-16,1776.9000244140625,1787.800048828125,1771.9000244140625,1786.9000244140625,1786.9000244140625,219
2021-08-17,1787.699951171875,1794.199951171875,1780.0,1785.0,1785.0,200
2021-08-18,1787.800048828125,1791.5,1779.0,1781.5999755859375,1781.5999755859375,263
2021-08-19,1780.0,1789.300048828125,1775.5,1780.199951171875,1780.199951171875,245
2021-08-20,1784.0999755859375,1787.5,1778.199951171875,1781.0,1781.0,235
2021-08-23,1776.800048828125,1804.800048828125,1776.800048828125,1803.199951171875,1803.199951171875,32
2021-08-24,1801.0,1805.5999755859375,1801.0,1805.5999755859375,1805.5999755859375,22
2021-08-25,1792.0,1792.9000244140625,1784.0,1788.199951171875,1788.199951171875,812
2021-08-26,1787.4000244140625,1792.199951171875,1781.0,1792.199951171875,1792.199951171875,61
2021-08-27,1803.4000244140625,1816.5999755859375,1803.0999755859375,1816.5999755859375,1816.5999755859375,1219
2021-08-30,1818.199951171875,1820.300048828125,1807.800048828125,1809.0,1809.0,684
2021-08-31,1815.9000244140625,1815.9000244140625,1801.0999755859375,1815.0,1815.0,82
2021-09-01,1813.5,1815.9000244140625,1809.5,1813.0999755859375,1813.0999755859375,114
2021-09-02,1813.199951171875,1813.9000244140625,1806.800048828125,1808.699951171875,1808.699951171875,26
2021-09-03,1820.9000244140625,1833.9000244140625,1818.9000244140625,1830.9000244140625,1830.9000244140625,53
2021-09-07,1825.699951171875,1825.699951171875,1792.699951171875,1795.9000244140625,1795.9000244140625,48
2021-09-08,1781.699951171875,1790.699951171875,1781.699951171875,1790.699951171875,1790.699951171875,69
2021-09-09,1798.699951171875,1798.699951171875,1787.9000244140625,1797.4000244140625,1797.4000244140625,49
2021-09-10,1789.5999755859375,1789.5999755859375,1789.5999755859375,1789.5999755859375,1789.5999755859375,0
2021-09-13,1789.800048828125,1796.0,1784.0,1792.0,1792.0,533
2021-09-14,1791.4000244140625,1806.199951171875,1783.0,1804.699951171875,1804.699951171875,764
2021-09-15,1803.699951171875,1803.699951171875,1792.4000244140625,1792.4000244140625,1792.4000244140625,59
2021-09-16,1792.9000244140625,1792.9000244140625,1743.9000244140625,1754.5999755859375,1754.5999755859375,1645
2021-09-17,1758.800048828125,1763.0,1749.4000244140625,1749.4000244140625,1749.4000244140625,581
2021-09-20,1751.800048828125,1761.800048828125,1750.9000244140625,1761.800048828125,1761.800048828125,185
2021-09-21,1762.199951171875,1776.0,1759.0,1776.0,1776.0,106
2021-09-22,1776.699951171875,1784.300048828125,1767.0,1776.699951171875,1776.699951171875,17
2021-09-23,1766.800048828125,1766.800048828125,1738.199951171875,1747.699951171875,1747.699951171875,31
2021-09-24,1749.699951171875,1749.699951171875,1745.0,1749.699951171875,1749.699951171875,76
2021-09-27,1751.699951171875,1754.4000244140625,1747.5,1750.0,1750.0,808
2021-09-28,1739.5999755859375,1741.699951171875,1726.800048828125,1735.800048828125,1735.800048828125,15748
2021-09-29,1732.4000244140625,1744.0999755859375,1721.4000244140625,1721.5,1721.5,6634
2021-09-30,1725.5,1760.300048828125,1724.5,1755.300048828125,1755.300048828125,997
2021-10-01,1754.300048828125,1762.5999755859375,1748.5,1757.0,1757.0,2220
2021-10-04,1764.5,1768.9000244140625,1749.5,1766.199951171875,1766.199951171875,417
2021-10-05,1764.300048828125,1764.300048828125,1749.0,1759.5999755859375,1759.5999755859375,98
2021-10-06,1759.300048828125,1762.9000244140625,1744.699951171875,1760.5,1760.5,56
2021-10-07,1762.4000244140625,1762.4000244140625,1752.800048828125,1757.9000244140625,1757.9000244140625,336
2021-10-08,1757.0,1780.0,1754.199951171875,1756.300048828125,1756.300048828125,254
2021-10-11,1756.5999755859375,1757.800048828125,1752.199951171875,1754.5999755859375,1754.5999755859375,128
2021-10-12,1751.9000244140625,1768.0,1749.800048828125,1758.300048828125,1758.300048828125,139
2021-10-13,1760.800048828125,1794.5,1760.800048828125,1793.699951171875,1793.699951171875,150
2021-10-14,1792.199951171875,1799.9000244140625,1792.0,1796.699951171875,1796.699951171875,337
2021-10-15,1794.5,1795.4000244140625,1766.5999755859375,1767.199951171875,1767.199951171875,874
2021-10-18,1761.5999755859375,1770.0999755859375,1759.5,1764.800048828125,1764.800048828125,266
2021-10-19,1777.5999755859375,1785.0,1767.5,1769.699951171875,1769.699951171875,51
2021-10-20,1774.5999755859375,1785.5999755859375,1774.0,1784.0999755859375,1784.0999755859375,127
2021-10-21,1782.0,1785.699951171875,1781.0,1781.199951171875,1781.199951171875,146
2021-10-22,1787.0999755859375,1806.9000244140625,1784.0,1795.5,1795.5,532
2021-10-25,1794.300048828125,1809.0,1794.0,1806.0,1806.0,140
2021-10-26,1808.800048828125,1808.800048828125,1788.5999755859375,1792.699951171875,1792.699951171875,359
2021-10-27,1791.5,1798.0999755859375,1791.5,1797.9000244140625,1797.9000244140625,543
2021-10-28,1795.5,1807.300048828125,1795.5,1801.5999755859375,1801.5999755859375,452
2021-10-29,1793.0999755859375,1797.0,1774.5999755859375,1783.0,1783.0,583
2021-11-01,1787.5,1795.0999755859375,1786.699951171875,1795.0999755859375,1795.0999755859375,142
2021-11-02,1790.5,1795.5,1787.699951171875,1788.699951171875,1788.699951171875,213
2021-11-03,1768.0,1768.0,1761.800048828125,1763.5999755859375,1763.5999755859375,108
2021-11-04,1776.5999755859375,1798.199951171875,1776.199951171875,1793.0,1793.0,103
2021-11-05,1794.9000244140625,1817.0999755859375,1794.9000244140625,1816.4000244140625,1816.4000244140625,239
2021-11-08,1817.0,1827.4000244140625,1816.9000244140625,1827.4000244140625,1827.4000244140625,261
2021-11-09,1826.0999755859375,1832.699951171875,1820.699951171875,1830.199951171875,1830.199951171875,170
2021-11-10,1825.800048828125,1865.0,1824.9000244140625,1847.5999755859375,1847.5999755859375,795
2021-11-11,1853.9000244140625,1866.5,1853.9000244140625,1863.199951171875,1863.199951171875,292
2021-11-12,1860.800048828125,1867.9000244140625,1847.5999755859375,1867.9000244140625,1867.9000244140625,210
2021-11-15,1864.5,1866.9000244140625,1864.5,1866.0999755859375,1866.0999755859375,87
2021-11-16,1853.5999755859375,1853.5999755859375,1853.5999755859375,1853.5999755859375,1853.5999755859375,1
2021-11-17,1862.5999755859375,1869.699951171875,1862.5999755859375,1869.699951171875,1869.699951171875,2
2021-11-18,1861.0,1861.0,1861.0,1861.0,1861.0,9
2021-11-19,1851.199951171875,1851.199951171875,1851.199951171875,1851.199951171875,1851.199951171875,21
2021-11-22,1841.5999755859375,1841.5999755859375,1805.699951171875,1806.0,1806.0,14
2021-11-23,1795.5,1795.5,1783.5,1783.5,1783.5,264
2021-11-24,1793.0,1793.0,1781.4000244140625,1784.0999755859375,1784.0999755859375,188
2021-11-25,1791.0999755859375,1791.4000244140625,1791.0999755859375,1791.4000244140625,1791.4000244140625,188
2021-11-26,1791.0999755859375,1791.4000244140625,1785.300048828125,1785.300048828125,1785.300048828125,186800
2021-11-29,1791.699951171875,1798.9000244140625,1779.0999755859375,1782.300048828125,1782.300048828125,26926
2021-11-30,1783.9000244140625,1808.0999755859375,1768.699951171875,1773.5999755859375,1773.5999755859375,4903
2021-12-01,1774.800048828125,1790.5,1772.300048828125,1781.5999755859375,1781.5999755859375,1128
2021-12-02,1780.9000244140625,1780.9000244140625,1760.5999755859375,1760.699951171875,1760.699951171875,1557
2021-12-03,1767.5,1785.0999755859375,1766.5,1782.0,1782.0,694
2021-12-06,1780.199951171875,1783.0,1777.199951171875,1777.5,1777.5,381
2021-12-07,1779.5,1786.0999755859375,1772.300048828125,1782.5999755859375,1782.5999755859375,308
2021-12-08,1789.9000244140625,1789.9000244140625,1779.0,1783.4000244140625,1783.4000244140625,1383
2021-12-09,1783.5,1783.5,1771.800048828125,1774.5999755859375,1774.5999755859375,455
2021-12-10,1773.800048828125,1785.4000244140625,1769.0999755859375,1782.9000244140625,1782.9000244140625,545
2021-12-13,1784.4000244140625,1787.0999755859375,1783.800048828125,1786.300048828125,1786.300048828125,206
2021-12-14,1787.0,1787.0,1769.0,1770.4000244140625,1770.4000244140625,322
2021-12-15,1767.4000244140625,1778.699951171875,1753.9000244140625,1762.5999755859375,1762.5999755859375,283
2021-12-16,1781.0,1798.0999755859375,1781.0,1796.5999755859375,1796.5999755859375,21
2021-12-17,1804.0,1812.9000244140625,1803.800048828125,1803.800048828125,1803.800048828125,654
2021-12-20,1796.800048828125,1799.800048828125,1792.0,1793.699951171875,1793.699951171875,226
2021-12-21,1791.4000244140625,1796.5,1787.9000244140625,1787.9000244140625,1787.9000244140625,575
2021-12-22,1786.0,1805.199951171875,1785.5,1801.5999755859375,1801.5999755859375,567
2021-12-23,1806.0,1811.199951171875,1800.800048828125,1811.199951171875,1811.199951171875,193
2021-12-27,1810.0,1812.0999755859375,1807.0,1808.0999755859375,1808.0999755859375,150
2021-12-28,1812.0,1818.0,1805.5,1810.199951171875,1810.199951171875,146
2021-12-29,1803.199951171875,1805.0999755859375,1791.4000244140625,1805.0999755859375,1805.0999755859375,623
2021-12-30,1801.699951171875,1816.0,1796.0,1812.699951171875,1812.699951171875,306
2021-12-31,1825.0999755859375,1827.800048828125,1821.4000244140625,1827.5,1827.5,80
2022-01-03,1830.0999755859375,1830.0999755859375,1798.800048828125,1799.4000244140625,1799.4000244140625,116
2022-01-04,1800.5,1815.300048828125,1800.0,1814.0,1814.0,38
2022-01-05,1813.0999755859375,1824.5999755859375,1813.0999755859375,1824.5999755859375,1824.5999755859375,8
2022-01-06,1787.0999755859375,1791.300048828125,1787.0999755859375,1788.699951171875,1788.699951171875,30
2022-01-07,1791.800048828125,1797.0,1784.4000244140625,1797.0,1797.0,17
2022-01-10,1794.9000244140625,1798.699951171875,1790.4000244140625,1798.4000244140625,1798.4000244140625,534
2022-01-11,1803.9000244140625,1822.5,1803.0,1818.5999755859375,1818.5999755859375,743
2022-01-12,1819.0,1827.199951171875,1816.9000244140625,1827.199951171875,1827.199951171875,1547
2022-01-13,1819.800048828125,1823.0,1815.4000244140625,1821.199951171875,1821.199951171875,40
2022-01-14,1821.5,1822.0,1816.5,1816.5,1816.5,816
2022-01-18,1816.800048828125,1820.0999755859375,1812.300048828125,1812.300048828125,1812.300048828125,900
2022-01-19,1817.4000244140625,1843.0999755859375,1817.4000244140625,1843.0999755859375,1843.0999755859375,4
2022-01-20,1840.5999755859375,1843.0,1838.199951171875,1842.5,1842.5,20
